…
``` r
# Calculate the number of locations
distinct_location = distinct(brfss_overallhealth, locationdesc) %>%
  nrow()

# Calculate the number of states
distinct_states = distinct(brfss_overallhealth, locationabbr) %>%
  nrow()

# Count the most observed state
count_(brfss_overallhealth, 'locationabbr', sort = TRUE)
```

    ## # A tibble: 51 x 2
    ##    locationabbr     n
    ##    <chr>        <int>
    ##  1 NJ             146
    ##  2 FL             122
    ##  3 NC             115
    ##  4 WA              97
    ##  5 MD              90
    ##  6 MA              79
    ##  7 TX              71
    ##  8 NY              65
    ##  9 SC              63
    ## 10 CO              59
    ## # ... with 41 more rows
…
